Wrangling
…
]

.pull-right45[

```r
# Read in sdg hackathon data
project_sdgs <- read_csv("1_Data/sdg_hackathon_data.zip")

project_sdgs
```

```
## # A tibble: 276,262 × 13
##   project_number project_title     
##            <dbl> <chr>             
## 1         184044 A safe haven for …
## 2         184044 A safe haven for …
## 3         184044 A safe haven for …
## 4         184044 A safe haven for …
## 5         184044 A safe haven for …
## # … with 276,257 more rows, and 11
## #   more variables:
## #   keywords <chr>,
## #   responsible_applicant <chr>,
## #   start_date <date>,
## #   end_date <date>,
## #   university <chr>, …
```
…
]

.pull-right45[

```r
# Read in taxation
basel <- read_csv("1_Data/sdg_hackathon_data.zip")

basel
```

```
## # A tibble: 276,262 × 13
##   project_number project_title     
##            <dbl> <chr>             
## 1         184044 A safe haven for …
## 2         184044 A safe haven for …
## 3         184044 A safe haven for …
## 4         184044 A safe haven for …
## 5         184044 A safe haven for …
## # … with 276,257 more rows, and 11
## #   more variables:
## #   keywords <chr>,
## #   responsible_applicant <chr>,
## #   start_date <date>,
## #   end_date <date>,
## #   university <chr>, …
```
…
]

.pull-right5[

```r
project_sdgs %>%
  
  # create year column
  mutate(year = year(start_date))
```

```
## # A tibble: 276,262 × 14
##   project_number project_title     
##            <dbl> <chr>             
## 1         184044 A safe haven for …
## 2         184044 A safe haven for …
## 3         184044 A safe haven for …
## 4         184044 A safe haven for …
## 5         184044 A safe haven for …
## 6         184044 A safe haven for …
## 7         184044 A safe haven for …
## 8         184044 A safe haven for …
## # … with 276,254 more rows, and 12
## #   more variables:
## #   keywords <chr>,
## #   responsible_applicant <chr>,
## #   start_date <date>,
## #   end_date <date>, …
```
…
]

.pull-right5[

```r
project_sdgs %>%
  mutate(year = year(start_date)) %>% 
  
  # Select columns
  select(project_number, year)
```

```
## # A tibble: 276,262 × 2
##   project_number  year
##            <dbl> <dbl>
## 1         184044  2019
## 2         184044  2019
## 3         184044  2019
## 4         184044  2019
## 5         184044  2019
## 6         184044  2019
## 7         184044  2019
## 8         184044  2019
## # … with 276,254 more rows
```
…
]

.pull-right5[

```r
project_sdgs %>%
  mutate(year = year(start_date)) %>% 
  select(project_number, year) %>% 
  
  # Retain distinct cases
  distinct()
```

```
## # A tibble: 32,375 × 2
##   project_number  year
##            <dbl> <dbl>
## 1         184044  2019
## 2         147530  2013
## 3         130596  2010
## 4         130258  2010
## 5         200917  2021
## 6         154235  2014
## 7         140013  2011
## 8         198085  2020
## # … with 32,367 more rows
```
…
.pull-right5[

```r
project_sdgs %>%
  mutate(year = year(start_date)) %>% 
  select(project_number, year) %>% 
  distinct() %>% 
  
  # Calculate statistics 
  group_by(year) %>% 
  summarize(n = n())
```

```
## # A tibble: 20 × 2
##    year     n
##   <dbl> <int>
## 1  2001     1
## 2  2003     3
## 3  2005     4
## 4  2006    32
## 5  2007    41
## 6  2008   442
## 7  2009  1506
## 8  2010  2036
## # … with 12 more rows
```
…
```r
project_sdgs %>%
  mutate(year = year(start_date)) %>% 
  select(project_number, year) %>% 
  distinct() %>% 
  group_by(year) %>% 
  summarize(n = n()) %>% 

  # Descendig sort by year
  arrange(desc(year))
```

```
## # A tibble: 20 × 2
##    year     n
##   <dbl> <int>
## 1  2022    19
## 2  2021  1679
## 3  2020  2401
## 4  2019  2643
## 5  2018  2594
## 6  2017  2810
## 7  2016  2700
## 8  2015  2839
## # … with 12 more rows
```
…
```r
project_sdgs %>%
  mutate(year = year(start_date)) %>% 
  select(project_number, year) %>% 
  distinct() %>% 
  group_by(year) %>% 
  summarize(n = n()) %>% 
  
  # Filter out cases
  filter(year > 2008 & year < 2022)
```

```
## # A tibble: 13 × 2
##    year     n
##   <dbl> <int>
## 1  2009  1506
## 2  2010  2036
## 3  2011  2098
## 4  2012  2806
## 5  2013  2822
## 6  2014  2899
## 7  2015  2839
## 8  2016  2700
## # … with 5 more rows
```
…
# Count projects per year
project_sdgs %>% 
  select(project_number, year) %>% 
  distinct() %>% 
  group_by(year) %>% 
  summarize(n = n()) %>% 

  # Join back to project_sdgs tibble
  right_join(project_sdgs, by = "year")
```

```
## # A tibble: 276,262 × 15
##    year     n project_number
##   <dbl> <int>          <dbl>
## 1  2001     1          65917
## 2  2001     1          65917
## 3  2001     1          65917
## 4  2001     1          65917
## 5  2001     1          65917
## 6  2001     1          65917
## # … with 276,256 more rows, and 12
## #   more variables:
## #   project_title <chr>,
## #   keywords <chr>,
## #   responsible_applicant <chr>, …
```
…
