ggplot basics
…
  # normalize within year
  group_by(year) %>% 
  mutate(prop = n / sum(n))
```

]

.pull-right45[

```r
sdg_props
```

```
# A tibble: 26 × 5
# Groups:   year [13]
  system   sdg     year     n  prop
  <chr>    <chr>  <dbl> <int> <dbl>
1 elsevier SDG-01  2009    14 0.609
2 elsevier SDG-01  2010    17 0.586
3 elsevier SDG-01  2011    24 0.686
4 elsevier SDG-01  2012    24 0.585
5 elsevier SDG-01  2013    29 0.725
6 elsevier SDG-01  2014    21 0.6  
7 elsevier SDG-01  2015    26 0.765
8 elsevier SDG-01  2016    34 0.829
# … with 18 more rows
```
…
  # no filtering of systems
  filter(year > 2008 & year < 2022,
         sdg %in% c("SDG-01", "SDG-06")) %>% 
  
  # group by year and system
  group_by(year, system) %>%
  mutate(prop = n / sum(n))
```

]

.pull-right45[

```
# A tibble: 130 × 5
# Groups:   year, system [65]
   system sdg     year     n  prop
   <chr>  <chr>  <dbl> <int> <dbl>
 1 aurora SDG-01  2009     8 0.4  
 2 aurora SDG-01  2010     4 0.222
 3 aurora SDG-01  2011    11 0.407
 4 aurora SDG-01  2012    17 0.586
 5 aurora SDG-01  2013    16 0.5  
 6 aurora SDG-01  2014    24 0.632
 7 aurora SDG-01  2015    15 0.577
 8 aurora SDG-01  2016    13 0.542
 9 aurora SDG-01  2017    16 0.516
10 aurora SDG-01  2018    25 0.658
11 aurora SDG-01  2019    21 0.677
12 aurora SDG-01  2020    16 0.533
13 aurora SDG-01  2021    13 0.565
14 aurora SDG-06  2009    12 0.6  
# … with 116 more rows
```
…
